{
  "religious" : [ {
    "address" : "Ashoka Road, Connaught Place, Next to Grand Post Office, New Delhi, Delhi 110001",
    "description" : "Gurudwara Bangla Sahib is one of the most prominent Sikh gurdwara, or Sikh house of worship, in Delhi, India and known for its association with the eighth Sikh Guru, Guru Har Krishan, as well as the pool inside its complex, known as the Sarovar.",
    "fourthimage" : "http://nroer.gov.in/home/file/readDoc/57d9428e16b51c0da00dad4d/gurudwara-bangla-sahib.jpg",
    "lattitude" : 28.6263576,
    "longitude" : 77.2068916,
    "name" : "Gurudwara Bangla Sahib",
    "phoneno" : "+91 11 2334 0174",
    "secondimage" : "http://www.indianmirror.com/temples/images/banglasahib-top-img.jpg",
    "summary" : "Sikh house of worship with a golden dome & a pool of water with purported healing properties.",
    "thirdimage" : "https://edge.ixigo.com/ixi-api/img/513d75d9e4b02898ecace294_600x315.jpg",
    "topimage" : "http://cloud.transindiatravels.com/wp-content/uploads/bangla-sahib-gurudwara-delhi.jpg"
  }, {
    "address" : "Lotus Temple Rd, Bahapur, Shambhu Dayal Bagh, Kalkaji, New Delhi, Delhi 110019",
    "description" : "The Lotus Temple, located in Delhi, India, is a Bahá'í House of Worship that was dedicated in December 1986, having been completed for a total cost $10 million. It serves as the Mother Temple of the Indian subcontinent.",
    "fourthimage" : "https://static2.tripoto.com/media/filter/nl/img/15546/TripDocument/1457113211_pinterest_satellite_view.jpg",
    "lattitude" : 28.5534967,
    "longitude" : 77.2566377,
    "name" : "Lotus Temple",
    "phoneno" : "+91 0000000000",
    "secondimage" : "https://upload.wikimedia.org/wikipedia/commons/thumb/f/f7/Lotus_Temple-Panoroma-Visit_During_WCI_2016-_IMG_6471.jpg/1200px-Lotus_Temple-Panoroma-Visit_During_WCI_2016-_IMG_6471.jpg",
    "summary" : "The Bahai's house of worship makes your sit in Peace and Relax",
    "thirdimage" : "http://s3.india.com/travel/wp-content/uploads/2016/03/Lotus-temple-main.jpg",
    "topimage" : "https://www.pandotrip.com/wp-content/uploads/2014/09/Lotus-Tmple-Photo-by-Arpan-Das-980x614.jpg"
  } ],
  "restaurants" : [ {
    "address" : "The Lodhi, Lodhi Road,New Delhi",
    "description" : "Indian Accent showcases inventive Indian cuisine by complementing the flavours and traditions of India with global ingredients and techniques.   The only restaurant in India to feature in the World’s 50 Best Restaurants 2017, Indian Accent has been awarded the San Pellegrino Best Restaurant Award in India by Asia’s 50 Best Restaurants 2017 for the third consecutive year. It has also been rated as the No.1 restaurant in India by TripAdvisor for 2014, 2015, 2016 and 2017.",
    "fourthimage" : "http://www.dfordelhi.in/wp-content/uploads/2016/06/indian-accent.jpg",
    "lattitude" : 28.591903,
    "longitude" : 77.2360404,
    "name" : "Indian Accent",
    "phoneno" : "+91 11 66175151",
    "secondimage" : "http://www.indianaccent.com/indianaccent/newyork/images/gallery-images-ny/indian-accent-newyork-bar.jpg",
    "summary" : "Showcasing inventive Indian cuisine & featured in the list of Asia’s 50 Best Restaurants",
    "thirdimage" : "https://swamiupendra.files.wordpress.com/2016/12/indian-accent-at-the-manor.jpg",
    "topimage" : "http://www.indianaccentrestaurant.com/wp-content/uploads/2016/06/50_indian_accent_chefs_table_-_indian_accent.jpg"
  }, {
    "address" : "Building 37, Club Road, West Punjabi Bagh, Punjabi Bagh, New Delhi",
    "description" : "Located amidst numerous restaurants and lounges on the very busy club road, Masabaa has carved a niche for itself by providing flavorful Multicuisine dishes, deluxe and larger than life ambiance and extraordinary services to the diners. The premium menu is specially made keeping in mind the varied tastes and preferences of the people and it promises to leave you mesmerizing. Masabaa is located in Punjabi Bagh, Delhi and the nearest landmark is The Tony & Guy Showroom.",
    "fourthimage" : "http://www.citychroniclesbyp.com/wp-content/uploads/2016/12/545932-masabaa-the-treasury.jpg",
    "lattitude" : 28.6665994,
    "longitude" : 77.1222109,
    "name" : "Masabaa",
    "phoneno" : "+91 11 33106190",
    "secondimage" : "https://im1.dineout.co.in/images/uploads/restaurant/sharpen/1/v/f/p1369-14460377115630c8cf80a59.jpg?w=700",
    "summary" : "Opulently decorated fine dining venue with plush private rooms plating Indian and global fare.",
    "thirdimage" : "https://im1.dineout.co.in/images/uploads/restaurant/sharpen/1/z/f/p1369-150270644059917b08246ed.jpg?w=700",
    "topimage" : "https://im1.dineout.co.in/images/uploads/restaurant/sharpen/1/w/m/p1369-14460377155630c8d3bb520.jpg?w=700"
  } ],
  "shopping" : [ {
    "address" : "Connaught Place, New Delhi",
    "description" : "Connaught Place is a frenetic business and financial hub, centered on a ring of colonnaded Georgian-style buildings with global chain stores, vintage cinemas, bars and Indian restaurants. Stalls at Janpath Market sell saris, embroidered bags and trinkets. The peaceful Sikh temple Gurdwara Bangla Sahib is known for its reflecting pool, and Jantar Mantar is a 1700s observatory with huge astronomical instruments.",
    "fourthimage" : "http://www.livemint.com/rf/Image-621x414/LiveMint/Period1/2016/01/15/Photos/ConnaughtPlace-kiGI--621x414@LiveMint.jpg",
    "lattitude" : 28.6289332,
    "longitude" : 77.2065322,
    "name" : "Connaught Place",
    "phoneno" : "+91 0000000000",
    "secondimage" : "https://www.happytrips.com/photo/48052467.cms.cms",
    "summary" : "When it came into being, the sprawling circular market was the largest of its kind in India.",
    "thirdimage" : "http://www.tehelka.com/wp-content/uploads/2015/09/CP1.jpg",
    "topimage" : "https://media-cdn.tripadvisor.com/media/photo-s/09/f0/66/42/connaught-place.jpg"
  }, {
    "address" : "46, Khan Market, Rabindra Nagar, New Delhi, Delhi 110003",
    "description" : "Khan Market , established in 1951 and named in honour of Khan Abdul Jabbar Khan (the brother of Khan Abdul Ghaffar Khan), has been ranked as the costliest retail location in India. In 2010, it was rated as the world's 21st most expensive retail high street by real estate firm Cushman & Wakefield and is consistently ranked as one of the costliest high-end streets.",
    "fourthimage" : "http://cdn.cnn.com/cnnnext/dam/assets/150929144049-khan-market-subway-super-169.jpg",
    "lattitude" : 28.6001554,
    "longitude" : 77.2247701,
    "name" : "Khan Market",
    "phoneno" : "+91 75990 51134",
    "secondimage" : "http://www.hindustantimes.com/rf/image_size_960x540/HT/p2/2017/02/14/Pictures/saturday-photograph-market-sushil-after-market-commonwealth_d513a6b8-f291-11e6-bee8-7b74d3637aa8.jpg",
    "summary" : "For the People who don't see the Price Tag...",
    "thirdimage" : "https://media-cdn.tripadvisor.com/media/photo-s/02/4c/da/21/filename-cimg9949-jpg.jpg",
    "topimage" : "https://static.toiimg.com/photo/msid-61656310/61656310.jpg?183484"
  } ],
  "topspots" : [ {
    "address" : " Netaji Subhash Marg, Lal Qila, Chandni Chowk, New Delhi, Delhi 110006",
    "description" : "The Red Fort is a historical fort in the city of Delhi in India. It was the main residence of the emperors of the Mughal dynasty for nearly 200 years, until 1857. It is located in the center of Delhi and houses a number of museums. In addition to accommodating the emperors and their households, it was the ceremonial and political centre of the Mughal state and the setting for events critically impacting the region.  Constructed in 1639 by the fifth Mughal Emperor Shah Jahan as the palace of his fortified capital Shahjahanabad, the Red Fort is named for its massive enclosing walls of red sandstone and is adjacent to the older Salimgarh Fort, built by Islam Shah Suri in 1546. The imperial apartments consist of a row of pavilions, connected by a water channel known as the Stream of Paradise (Nahr-i-Bihisht). The fort complex is considered to represent the zenith of Mughal creativity under Shah Jahan,[citation needed] and although the palace was planned according to Islamic prototypes, each pavilion contains architectural elements typical of Mughal buildings that reflect a fusion of Timurid and Persian traditions. The Red Fort’s innovative architectural style, including its garden design, influenced later buildings and gardens in Delhi, Rajasthan, Punjab, Kashmir, Braj, Rohilkhand and elsewhere.",
    "fourthimage" : "https://www.indiasinvitation.com/wp-content/uploads/2016/09/Red-Fort.jpg",
    "lattitude" : 28.656179,
    "longitude" : 77.241022,
    "name" : "Red Fort",
    "phoneno" : "+91 11 2469 8431",
    "secondimage" : "http://www.nriol.com/images/fort4.png",
    "summary" : "Iconic 1600s imperial residence and museum",
    "thirdimage" : "https://www.showincity.com/UserFiles/1/2017/India/red%20fort.jpg",
    "topimage" : "https://upload.wikimedia.org/wikipedia/commons/thumb/0/0d/Red_Fort_in_Delhi_03-2016_img3.jpg/1200px-Red_Fort_in_Delhi_03-2016_img3.jpg"
  }, {
    "address" : "Rajpath, India Gate, New Delhi, Delhi 110001",
    "description" : "The India Gate, (originally called the All India War Memorial), is a war memorial located astride the Rajpath, on the eastern edge of the ‘ceremonial axis’ of New Delhi, India, formerly called Kingsway.  India Gate is a memorial to 82,000 soldiers of the Indian Army who died in the period 1914–21 in the First World War, in France, Flanders, Mesopotamia, Persia, East Africa, Gallipoli and elsewhere in the Near and the Far East, and the Third Anglo-Afghan War. 13,300 servicemen's names, including some soldiers and officers from the United Kingdom, are inscribed on the gate. The India Gate, even though a war memorial, evokes the architectural style of the triumphal arch like the Arch of Constantine, outside the Colosseum in Rome, and is often compared to the Arc de Triomphe in Paris, and the Gateway of India in Mumbai. It was designed by Sir Edwin Lutyens.",
    "fourthimage" : "http://www.culturalindia.net/iliimages/India-Gate-2.jpg",
    "lattitude" : 28.612933,
    "longitude" : 77.229511,
    "name" : "India Gate",
    "phoneno" : "+91 11 2464 7005",
    "secondimage" : "https://upload.wikimedia.org/wikipedia/commons/thumb/7/7e/India_Gate10.JPG/220px-India_Gate10.JPG",
    "summary" : "1920s triumphal arch & war memorial",
    "thirdimage" : "http://www.culturalindia.net/iliimages/India-Gate-3.jpg",
    "topimage" : "http://www.culturalindia.net/iliimages/India-Gate-ili-49-img-1.jpg"
  }, {
    "address" : " Mehrauli, New Delhi, Delhi 110030",
    "description" : "Qutub Minar is a minaret that forms part of the Qutb complex, a UNESCO World Heritage Site in the Mehrauli area of Delhi, India. Made of red sandstone and marble, Qutub Minar is a 73-metre (239 feet) tall tapering tower of five storeys, with a 14.3 metre (47 feet) base diameter, reducing to 2.7 metres (9 feet) at the peak. It contains a spiral staircase of 379 steps. Its design is thought to have been based on the Minaret of Jam, in western Afghanistan.  Qutb Ud-Din-Aibak, founder of the Delhi Sultanate, started construction of the Qutub Minar's first storey around 1192. In 1220, Aibak's successor and son-in-law Iltutmish completed a further three storeys. In 1369, a lightning strike destroyed the top storey. Firoz Shah Tughlaq replaced the damaged storey, and added one more.",
    "fourthimage" : "https://upload.wikimedia.org/wikipedia/commons/thumb/1/17/Qutb_Minar_tower.jpg/200px-Qutb_Minar_tower.jpg",
    "lattitude" : 28.5244328,
    "longitude" : 77.1832672,
    "name" : "Qutub Minar",
    "phoneno" : "+91 11 2464 7005 1221",
    "secondimage" : "https://images.mapsofworld.com/allwonders/qutub-minar.jpg",
    "summary" : "5-storey victory tower with balconies",
    "thirdimage" : "http://amazingindiablog.in/wp-content/uploads/2016/06/Qutub-Minar-Delhi-1024x681.jpg",
    "topimage" : "http://www.culturalindia.net/iliimages/Qutab-Minar-4.jpg"
  } ]
}
